module github.com/ardanlabs/nlp

go 1.20

require (
	github.com/go-chi/chi/v5 v5.0.8
	github.com/stretchr/testify v1.8.1
	go.uber.org/zap v1.24.0
	gopkg.in/yaml.v3 v3.0.1
)

require (
	github.com/davecgh/go-spew v1.1.1 // indirect
	github.com/pmezard/go-difflib v1.0.0 // indirect
	go.uber.org/atomic v1.7.0 // indirect
	go.uber.org/multierr v1.6.0 // indirect
)
